Game,Recall %
Simple,24
Simple,43
Simple,38
Simple,65
Simple,35
Simple,15
Simple,44
Simple,44
Simple,18
Simple,27
Simple,0
Simple,38
Simple,50
Simple,31
Simple,7
Simple,46
Simple,33
Simple,31
Simple,0
Simple,29
Simple,0
Simple,0
Simple,52
Simple,0
Simple,29
Simple,42
Simple,39
Simple,26
Simple,51
Simple,0
Simple,42
Simple,20
Simple,37
Simple,51
Simple,0
Simple,30
Simple,43
Simple,30
Simple,99
Simple,39
Simple,35
Simple,19
Simple,24
Simple,34
Simple,3
Simple,60
Simple,0
Simple,29
Simple,40
Simple,40
Elaborate,39
Elaborate,71
Elaborate,9
Elaborate,86
Elaborate,26
Elaborate,45
Elaborate,0
Elaborate,38
Elaborate,5
Elaborate,53
Elaborate,29
Elaborate,0
Elaborate,62
Elaborate,0
Elaborate,1
Elaborate,35
Elaborate,10
Elaborate,6
Elaborate,33
Elaborate,48
Elaborate,9
Elaborate,26
Elaborate,83
Elaborate,33
Elaborate,12
Elaborate,5
Elaborate,0
Elaborate,0
Elaborate,25
Elaborate,36
Elaborate,39
Elaborate,1
Elaborate,37
Elaborate,2
Elaborate,13
Elaborate,26
Elaborate,7
Elaborate,35
Elaborate,3
Elaborate,8
Elaborate,55
Elaborate,50
Pairwise,5
Pairwise,21
Pairwise,22
Pairwise,3
Pairwise,32
Pairwise,29
Pairwise,32
Pairwise,0
Pairwise,4
Pairwise,41
Pairwise,0
Pairwise,27
Pairwise,5
Pairwise,9
Pairwise,66
Pairwise,54
Pairwise,1
Pairwise,15
Pairwise,0
Pairwise,26
Pairwise,1
Pairwise,30
Pairwise,2
Pairwise,13
Pairwise,0
Pairwise,2
Pairwise,17
Pairwise,14
Pairwise,5
Pairwise,29
Pairwise,0
Pairwise,45
Pairwise,35
Pairwise,7
Pairwise,11
Pairwise,4
Pairwise,9
Pairwise,23
Pairwise,4
Pairwise,0
Pairwise,8
Pairwise,2
Pairwise,18
Pairwise,0
Pairwise,5
Pairwise,21
Pairwise,14